Date,Price
2022,1
2021,1.08833699
2020,1.1092011175173433
2019,1.108592645167789
2018,1.1266685032235582
2017,1.1462568632207684
2016,1.1626381002910369
2015,1.161998654684012
2014,1.1558917440283512
2013,1.1581959425547834
2012,1.178686756752422
2011,1.2093021315884553
2010,1.2311040592538405
2009,1.2532783362379027
2008,1.2637966275747363
2007,1.3351685816315826
2006,1.3840023190980144
2005,1.418020044259681
2004,1.4527828198249075
2003,1.5049809578733395
2002,1.5884195703466084
2001,1.707245712112792
2000,1.8503072005871655
1999,2.0152018600201322
1998,2.1392493838913085
1997,2.3080611039281487
1996,2.5010076033403985
1995,2.747718397928567
1994,3.117663509414155
1993,3.7721178215160576
1992,4.970222787739155
1991,15.404400354505897
1990,33.0937200091953
1989,215.79868771616106
1988,2981.1380235336437
1987,8906.260147413632
1986,20668.998393126793
1985,40487.77753735231
1984,72637.64792466142
1983,111623.71179125611
1982,156511.5019700617
1981,203641.10625654753
