Date,Price
2021,1
2020,1.01726478
2019,1.0246390493756699
2018,1.0461159551845465
2017,1.0693513935825436
2016,1.0867380527453998
2015,1.0865481034312676
2014,1.0952620236421278
2013,1.144759115967183
2012,1.204645311714056
2011,1.258799575518865
2010,1.3202037936366837
2009,1.3949637263751107
2008,1.5043665744428059
2007,1.7063196634822504
2006,1.8659841578142635
2005,2.0800237366205065
2004,2.367031651870614
2003,2.6585271024383417
2002,2.909693603848157
2001,3.176440376016594
2000,3.5339684342675928
1999,3.9213461511740526
1998,4.31525635182871
1997,4.8183850356574744
1996,5.456726612535391
1995,6.41227856492622
1994,7.899061534382838
1993,8.968157648035424
1992,9.845118001487794
1991,11.990484401892601
1990,15.432867341236713
1989,18.37124670083983
1988,21.404304625779755
1987,25.86336280823671
1986,30.219378998523734
1985,33.79586063462642
1984,38.88464531299678
1983,43.530361092515356
1982,57.7315798572904
1981,109.76004745469261
1980,150.43310382366485
