Date,Price
2022,1
2021,1.08308754
2020,1.1312225821803221
2019,1.1634388850305262
2018,1.1985046654344025
2017,1.230659526879042
2016,1.2523242171759592
2015,1.2735752825144833
2014,1.2943735055516086
2013,1.3208385121770827
2012,1.3719850116744878
2011,1.4431347823949152
2010,1.5008749802535792
2009,1.5818731805929178
2008,1.7717473167073023
2007,1.9966600080793941
2006,2.0975225662499297
2005,2.2377854524217615
2004,2.3270070325468346
2003,2.400498452298377
2002,2.4498445867928633
2001,2.5771635734327436
2000,2.742233116671784
1999,2.883087235151351
1998,2.976263742174015
1997,3.0256470114017504
1996,3.080575545197311
1995,3.1502095217418153
1994,3.202226789431863
1993,3.251946387833852
1992,3.3834177023743925
1991,3.5169852890211506
1990,3.756449079982965
1989,4.339101378721699
1988,5.239820721119506
1987,6.587791324713177
1986,7.793210229389147
1985,9.517722961789294
1984,12.562882256066525
1983,16.438832941237195
1982,30.239239770938994
1981,45.43241055930334
1980,68.96333254130973
